<svg width="56" height="56" viewBox="0 0 56 56" fill="none" xmlns="http://www.w3.org/2000/svg">
<rect width="56" height="56" fill="white"/>
<rect x="22.5" y="4.5" width="11" height="19" rx="1.5" fill="black" stroke="black"/>
<g clip-path="url(#clip0_77_558)">
<path d="M25.9168 10.8166C27.2713 11.0857 27.1748 12.188 28.2638 12.6514C28.7461 12.856 29.8571 12.9798 29.9781 12.9225C30.7158 12.5757 31.8008 11.7081 31.8008 11.7081C31.8008 11.7081 31.7039 12.4146 31.3258 13.0246C32.2098 12.8156 32.6667 12.3634 32.6667 12.3634C32.6667 12.3634 32.0812 17.4652 28.0844 17.2189C25.0428 17.0318 25.2243 14.34 24.726 13.5565C24.2286 12.7743 23.3334 12.9365 23.3334 12.9365C23.3334 12.9365 23.8809 10.4128 25.9168 10.8166ZM25.205 12.3514C25.3909 12.3514 25.5411 12.2008 25.5411 12.0153C25.5411 11.8299 25.3909 11.6793 25.205 11.6793C25.02 11.6793 24.8694 11.8303 24.8694 12.0153C24.8694 12.2004 25.0196 12.3514 25.205 12.3514Z" fill="white"/>
</g>
<path d="M26.0986 30H25.5361V25.7344H26.0986V30Z" fill="black"/>
<path d="M30.4082 30H29.8428L27.6953 26.7129V30H27.1299V25.7344H27.6953L29.8486 29.0361V25.7344H30.4082V30Z" fill="black"/>
<rect x="18" y="32" width="20" height="20" fill="#FDB716"/>
<path d="M22.2767 35.1578L25 49.8947H20L22.2767 35.1578Z" fill="white"/>
<path d="M27.7321 34.1052L31 49.8947H25L27.7321 34.1052Z" fill="white"/>
<path d="M33.2767 35.1578L36 49.8947H31L33.2767 35.1578Z" fill="white"/>
<defs>
<clipPath id="clip0_77_558">
<rect width="9.33333" height="9.33333" rx="2" transform="matrix(-1 0 0 1 32.6667 9.33337)" fill="white"/>
</clipPath>
</defs>
</svg>
