<svg width="56" height="56" viewBox="0 0 56 56" fill="none" xmlns="http://www.w3.org/2000/svg">
<rect width="56" height="56" fill="white"/>
<path d="M18.5176 6.42285C18.0352 6.28418 17.6836 6.11426 17.4629 5.91309C17.2441 5.70996 17.1348 5.45996 17.1348 5.16309C17.1348 4.82715 17.2686 4.5498 17.5361 4.33105C17.8057 4.11035 18.1553 4 18.585 4C18.8779 4 19.1387 4.05664 19.3672 4.16992C19.5977 4.2832 19.7754 4.43945 19.9004 4.63867C20.0273 4.83789 20.0908 5.05566 20.0908 5.29199H19.5254C19.5254 5.03418 19.4434 4.83203 19.2793 4.68555C19.1152 4.53711 18.8838 4.46289 18.585 4.46289C18.3076 4.46289 18.0908 4.52441 17.9346 4.64746C17.7803 4.76855 17.7031 4.9375 17.7031 5.1543C17.7031 5.32812 17.7764 5.47559 17.9229 5.59668C18.0713 5.71582 18.3223 5.8252 18.6758 5.9248C19.0312 6.02441 19.3086 6.13477 19.5078 6.25586C19.709 6.375 19.8574 6.51465 19.9531 6.6748C20.0508 6.83496 20.0996 7.02344 20.0996 7.24023C20.0996 7.58594 19.9648 7.86328 19.6953 8.07227C19.4258 8.2793 19.0654 8.38281 18.6143 8.38281C18.3213 8.38281 18.0479 8.32715 17.7939 8.21582C17.54 8.10254 17.3438 7.94824 17.2051 7.75293C17.0684 7.55762 17 7.33594 17 7.08789H17.5654C17.5654 7.3457 17.6602 7.5498 17.8496 7.7002C18.041 7.84863 18.2959 7.92285 18.6143 7.92285C18.9111 7.92285 19.1387 7.8623 19.2969 7.74121C19.4551 7.62012 19.5342 7.45508 19.5342 7.24609C19.5342 7.03711 19.4609 6.87598 19.3145 6.7627C19.168 6.64746 18.9023 6.53418 18.5176 6.42285Z" fill="black"/>
<path d="M23.2344 6.35254H21.3857V7.86426H23.5332V8.32422H20.8232V4.05859H23.5039V4.52148H21.3857V5.89258H23.2344V6.35254Z" fill="black"/>
<path d="M27.2393 4.52148H25.8682V8.32422H25.3086V4.52148H23.9404V4.05859H27.2393V4.52148Z" fill="black"/>
<path d="M29.082 6.42285C28.5996 6.28418 28.248 6.11426 28.0273 5.91309C27.8086 5.70996 27.6992 5.45996 27.6992 5.16309C27.6992 4.82715 27.833 4.5498 28.1006 4.33105C28.3701 4.11035 28.7197 4 29.1494 4C29.4424 4 29.7031 4.05664 29.9316 4.16992C30.1621 4.2832 30.3398 4.43945 30.4648 4.63867C30.5918 4.83789 30.6553 5.05566 30.6553 5.29199H30.0898C30.0898 5.03418 30.0078 4.83203 29.8438 4.68555C29.6797 4.53711 29.4482 4.46289 29.1494 4.46289C28.8721 4.46289 28.6553 4.52441 28.499 4.64746C28.3447 4.76855 28.2676 4.9375 28.2676 5.1543C28.2676 5.32812 28.3408 5.47559 28.4873 5.59668C28.6357 5.71582 28.8867 5.8252 29.2402 5.9248C29.5957 6.02441 29.873 6.13477 30.0723 6.25586C30.2734 6.375 30.4219 6.51465 30.5176 6.6748C30.6152 6.83496 30.6641 7.02344 30.6641 7.24023C30.6641 7.58594 30.5293 7.86328 30.2598 8.07227C29.9902 8.2793 29.6299 8.38281 29.1787 8.38281C28.8857 8.38281 28.6123 8.32715 28.3584 8.21582C28.1045 8.10254 27.9082 7.94824 27.7695 7.75293C27.6328 7.55762 27.5645 7.33594 27.5645 7.08789H28.1299C28.1299 7.3457 28.2246 7.5498 28.4141 7.7002C28.6055 7.84863 28.8604 7.92285 29.1787 7.92285C29.4756 7.92285 29.7031 7.8623 29.8613 7.74121C30.0195 7.62012 30.0986 7.45508 30.0986 7.24609C30.0986 7.03711 30.0254 6.87598 29.8789 6.7627C29.7324 6.64746 29.4668 6.53418 29.082 6.42285Z" fill="black"/>
<path d="M36.1572 6.3291C36.1572 6.74707 36.0869 7.1123 35.9463 7.4248C35.8057 7.73535 35.6064 7.97266 35.3486 8.13672C35.0908 8.30078 34.79 8.38281 34.4463 8.38281C34.1104 8.38281 33.8125 8.30078 33.5527 8.13672C33.293 7.9707 33.0908 7.73535 32.9463 7.43066C32.8037 7.12402 32.7305 6.76953 32.7266 6.36719V6.05957C32.7266 5.64941 32.7979 5.28711 32.9404 4.97266C33.083 4.6582 33.2842 4.41797 33.5439 4.25195C33.8057 4.08398 34.1045 4 34.4404 4C34.7822 4 35.083 4.08301 35.3428 4.24902C35.6045 4.41309 35.8057 4.65234 35.9463 4.9668C36.0869 5.2793 36.1572 5.64355 36.1572 6.05957V6.3291ZM35.5977 6.05371C35.5977 5.54785 35.4961 5.16016 35.293 4.89062C35.0898 4.61914 34.8057 4.4834 34.4404 4.4834C34.085 4.4834 33.8047 4.61914 33.5996 4.89062C33.3965 5.16016 33.292 5.53516 33.2861 6.01562V6.3291C33.2861 6.81934 33.3887 7.20508 33.5938 7.48633C33.8008 7.76562 34.085 7.90527 34.4463 7.90527C34.8096 7.90527 35.0908 7.77344 35.29 7.50977C35.4893 7.24414 35.5918 6.86426 35.5977 6.37012V6.05371Z" fill="black"/>
<path d="M39.3535 6.44043H37.5635V8.32422H37.001V4.05859H39.6436V4.52148H37.5635V5.98047H39.3535V6.44043Z" fill="black"/>
<rect x="4" y="38" width="14" height="14" fill="#FDB716"/>
<path d="M6.9936 40.2106L8.8999 50.5264H5.3999L6.9936 40.2106Z" fill="white"/>
<path d="M10.8126 39.4736L13.1002 50.5263H8.90018L10.8126 39.4736Z" fill="white"/>
<path d="M14.6938 40.2106L16.6001 50.5264H13.1001L14.6938 40.2106Z" fill="white"/>
<rect x="38" y="38" width="14" height="14" fill="#20603E"/>
<rect x="44.3" y="43.8948" width="1.4" height="6.63158" fill="white"/>
<ellipse cx="45.0002" cy="42.421" rx="2.8" ry="2.94737" fill="white"/>
<ellipse cx="45.0002" cy="42.421" rx="2.8" ry="2.94737" fill="white"/>
<ellipse cx="45.0002" cy="42.421" rx="2.8" ry="2.94737" fill="white"/>
<ellipse cx="45.0002" cy="42.421" rx="2.8" ry="2.94737" fill="white"/>
<ellipse cx="45.0002" cy="42.421" rx="2.8" ry="2.94737" fill="white"/>
<ellipse cx="41.8501" cy="43.5263" rx="1.75" ry="1.84211" fill="white"/>
<ellipse cx="41.8501" cy="43.5263" rx="1.75" ry="1.84211" fill="white"/>
<ellipse cx="41.8501" cy="43.5263" rx="1.75" ry="1.84211" fill="white"/>
<ellipse cx="41.8501" cy="43.5263" rx="1.75" ry="1.84211" fill="white"/>
<ellipse cx="41.8501" cy="43.5263" rx="1.75" ry="1.84211" fill="white"/>
<ellipse cx="42.55" cy="42.0527" rx="1.75" ry="1.84211" fill="white"/>
<ellipse cx="42.55" cy="42.0527" rx="1.75" ry="1.84211" fill="white"/>
<ellipse cx="42.55" cy="42.0527" rx="1.75" ry="1.84211" fill="white"/>
<ellipse cx="42.55" cy="42.0527" rx="1.75" ry="1.84211" fill="white"/>
<ellipse cx="42.55" cy="42.0527" rx="1.75" ry="1.84211" fill="white"/>
<ellipse cx="47.4502" cy="42.0527" rx="1.75" ry="1.84211" fill="white"/>
<ellipse cx="47.4502" cy="42.0527" rx="1.75" ry="1.84211" fill="white"/>
<ellipse cx="47.4502" cy="42.0527" rx="1.75" ry="1.84211" fill="white"/>
<ellipse cx="47.4502" cy="42.0527" rx="1.75" ry="1.84211" fill="white"/>
<ellipse cx="47.4502" cy="42.0527" rx="1.75" ry="1.84211" fill="white"/>
<ellipse cx="48.1501" cy="43.5263" rx="1.75" ry="1.84211" fill="white"/>
<ellipse cx="48.1501" cy="43.5263" rx="1.75" ry="1.84211" fill="white"/>
<ellipse cx="48.1501" cy="43.5263" rx="1.75" ry="1.84211" fill="white"/>
<ellipse cx="48.1501" cy="43.5263" rx="1.75" ry="1.84211" fill="white"/>
<ellipse cx="48.1501" cy="43.5263" rx="1.75" ry="1.84211" fill="white"/>
<ellipse cx="43.6002" cy="44.6316" rx="1.4" ry="1.47368" fill="white"/>
<ellipse cx="43.6002" cy="44.6316" rx="1.4" ry="1.47368" fill="white"/>
<ellipse cx="43.6002" cy="44.6316" rx="1.4" ry="1.47368" fill="white"/>
<ellipse cx="43.6002" cy="44.6316" rx="1.4" ry="1.47368" fill="white"/>
<ellipse cx="43.6002" cy="44.6316" rx="1.4" ry="1.47368" fill="white"/>
<ellipse cx="46.4" cy="44.6316" rx="1.4" ry="1.47368" fill="white"/>
<ellipse cx="46.4" cy="44.6316" rx="1.4" ry="1.47368" fill="white"/>
<ellipse cx="46.4" cy="44.6316" rx="1.4" ry="1.47368" fill="white"/>
<ellipse cx="46.4" cy="44.6316" rx="1.4" ry="1.47368" fill="white"/>
<ellipse cx="46.4" cy="44.6316" rx="1.4" ry="1.47368" fill="white"/>
<rect x="21" y="38" width="14" height="14" fill="#0670BB"/>
<path d="M31.5 48.3158C31.5 49.3332 30.7165 50.1579 29.75 50.1579" stroke="white" stroke-linecap="round"/>
<path d="M31.5 48.3158C31.5 49.3332 30.7165 50.1579 29.75 50.1579" stroke="white" stroke-linecap="round"/>
<path d="M31.5 48.3158C31.5 49.3332 30.7165 50.1579 29.75 50.1579" stroke="white" stroke-linecap="round"/>
<path d="M28 48.3158C28 49.3332 27.2165 50.1579 26.25 50.1579" stroke="white" stroke-linecap="round"/>
<path d="M28 48.3158C28 49.3332 27.2165 50.1579 26.25 50.1579" stroke="white" stroke-linecap="round"/>
<path d="M28 48.3158C28 49.3332 27.2165 50.1579 26.25 50.1579" stroke="white" stroke-linecap="round"/>
<path d="M24.5 48.3158C24.5 49.3332 23.7165 50.1579 22.75 50.1579" stroke="white" stroke-linecap="round"/>
<path d="M24.5 48.3158C24.5 49.3332 23.7165 50.1579 22.75 50.1579" stroke="white" stroke-linecap="round"/>
<path d="M24.5 48.3158C24.5 49.3332 23.7165 50.1579 22.75 50.1579" stroke="white" stroke-linecap="round"/>
<path d="M33.25 50.1579C32.2835 50.1579 31.5 49.3332 31.5 48.3158" stroke="white" stroke-linecap="round"/>
<path d="M33.25 50.1579C32.2835 50.1579 31.5 49.3332 31.5 48.3158" stroke="white" stroke-linecap="round"/>
<path d="M33.25 50.1579C32.2835 50.1579 31.5 49.3332 31.5 48.3158" stroke="white" stroke-linecap="round"/>
<path d="M29.75 50.1579C28.7835 50.1579 28 49.3332 28 48.3158" stroke="white" stroke-linecap="round"/>
<path d="M29.75 50.1579C28.7835 50.1579 28 49.3332 28 48.3158" stroke="white" stroke-linecap="round"/>
<path d="M29.75 50.1579C28.7835 50.1579 28 49.3332 28 48.3158" stroke="white" stroke-linecap="round"/>
<path d="M26.25 50.1579C25.2835 50.1579 24.5 49.3332 24.5 48.3158" stroke="white" stroke-linecap="round"/>
<path d="M26.25 50.1579C25.2835 50.1579 24.5 49.3332 24.5 48.3158" stroke="white" stroke-linecap="round"/>
<path d="M26.25 50.1579C25.2835 50.1579 24.5 49.3332 24.5 48.3158" stroke="white" stroke-linecap="round"/>
<path d="M31.5 44.079C31.5 45.0963 30.7165 45.9211 29.75 45.9211" stroke="white" stroke-linecap="round"/>
<path d="M31.5 44.079C31.5 45.0963 30.7165 45.9211 29.75 45.9211" stroke="white" stroke-linecap="round"/>
<path d="M31.5 44.079C31.5 45.0963 30.7165 45.9211 29.75 45.9211" stroke="white" stroke-linecap="round"/>
<path d="M28 44.079C28 45.0963 27.2165 45.9211 26.25 45.9211" stroke="white" stroke-linecap="round"/>
<path d="M28 44.079C28 45.0963 27.2165 45.9211 26.25 45.9211" stroke="white" stroke-linecap="round"/>
<path d="M28 44.079C28 45.0963 27.2165 45.9211 26.25 45.9211" stroke="white" stroke-linecap="round"/>
<path d="M24.5 44.079C24.5 45.0963 23.7165 45.9211 22.75 45.9211" stroke="white" stroke-linecap="round"/>
<path d="M24.5 44.079C24.5 45.0963 23.7165 45.9211 22.75 45.9211" stroke="white" stroke-linecap="round"/>
<path d="M24.5 44.079C24.5 45.0963 23.7165 45.9211 22.75 45.9211" stroke="white" stroke-linecap="round"/>
<path d="M33.25 45.9211C32.2835 45.9211 31.5 45.0963 31.5 44.079" stroke="white" stroke-linecap="round"/>
<path d="M33.25 45.9211C32.2835 45.9211 31.5 45.0963 31.5 44.079" stroke="white" stroke-linecap="round"/>
<path d="M33.25 45.9211C32.2835 45.9211 31.5 45.0963 31.5 44.079" stroke="white" stroke-linecap="round"/>
<path d="M29.75 45.9211C28.7835 45.9211 28 45.0963 28 44.079" stroke="white" stroke-linecap="round"/>
<path d="M29.75 45.9211C28.7835 45.9211 28 45.0963 28 44.079" stroke="white" stroke-linecap="round"/>
<path d="M29.75 45.9211C28.7835 45.9211 28 45.0963 28 44.079" stroke="white" stroke-linecap="round"/>
<path d="M26.25 45.9211C25.2835 45.9211 24.5 45.0963 24.5 44.079" stroke="white" stroke-linecap="round"/>
<path d="M26.25 45.9211C25.2835 45.9211 24.5 45.0963 24.5 44.079" stroke="white" stroke-linecap="round"/>
<path d="M26.25 45.9211C25.2835 45.9211 24.5 45.0963 24.5 44.079" stroke="white" stroke-linecap="round"/>
<path d="M31.5 39.842C31.5 40.8594 30.7165 41.6841 29.75 41.6841" stroke="white" stroke-linecap="round"/>
<path d="M31.5 39.842C31.5 40.8594 30.7165 41.6841 29.75 41.6841" stroke="white" stroke-linecap="round"/>
<path d="M31.5 39.842C31.5 40.8594 30.7165 41.6841 29.75 41.6841" stroke="white" stroke-linecap="round"/>
<path d="M28 39.842C28 40.8594 27.2165 41.6841 26.25 41.6841" stroke="white" stroke-linecap="round"/>
<path d="M28 39.842C28 40.8594 27.2165 41.6841 26.25 41.6841" stroke="white" stroke-linecap="round"/>
<path d="M28 39.842C28 40.8594 27.2165 41.6841 26.25 41.6841" stroke="white" stroke-linecap="round"/>
<path d="M24.5 39.842C24.5 40.8594 23.7165 41.6841 22.75 41.6841" stroke="white" stroke-linecap="round"/>
<path d="M24.5 39.842C24.5 40.8594 23.7165 41.6841 22.75 41.6841" stroke="white" stroke-linecap="round"/>
<path d="M24.5 39.842C24.5 40.8594 23.7165 41.6841 22.75 41.6841" stroke="white" stroke-linecap="round"/>
<path d="M33.25 41.6841C32.2835 41.6841 31.5 40.8594 31.5 39.842" stroke="white" stroke-linecap="round"/>
<path d="M33.25 41.6841C32.2835 41.6841 31.5 40.8594 31.5 39.842" stroke="white" stroke-linecap="round"/>
<path d="M33.25 41.6841C32.2835 41.6841 31.5 40.8594 31.5 39.842" stroke="white" stroke-linecap="round"/>
<path d="M29.75 41.6841C28.7835 41.6841 28 40.8594 28 39.842" stroke="white" stroke-linecap="round"/>
<path d="M29.75 41.6841C28.7835 41.6841 28 40.8594 28 39.842" stroke="white" stroke-linecap="round"/>
<path d="M29.75 41.6841C28.7835 41.6841 28 40.8594 28 39.842" stroke="white" stroke-linecap="round"/>
<path d="M26.25 41.6841C25.2835 41.6841 24.5 40.8594 24.5 39.842" stroke="white" stroke-linecap="round"/>
<path d="M26.25 41.6841C25.2835 41.6841 24.5 40.8594 24.5 39.842" stroke="white" stroke-linecap="round"/>
<path d="M26.25 41.6841C25.2835 41.6841 24.5 40.8594 24.5 39.842" stroke="white" stroke-linecap="round"/>
<path d="M26.5625 34.9956H26V30.73H26.5625V34.9956Z" fill="black"/>
<path d="M30.8721 34.9956H30.3066L28.1592 31.7085V34.9956H27.5938V30.73H28.1592L30.3125 34.0317V30.73H30.8721V34.9956Z" fill="black"/>
<path d="M32.5082 15.3535C31.2266 13.191 29.6256 12 28 12C26.3744 12 24.7735 13.191 23.4918 15.3535C22.4327 17.1407 21.7483 19.3672 21.7483 21.0259C21.7483 22.6269 22.3884 24.1258 23.5508 25.2466C24.7233 26.3773 26.3034 26.9999 28.0001 26.9999C29.6967 26.9999 31.2768 26.3772 32.4494 25.2466C33.6117 24.1258 34.2518 22.6269 34.2518 21.0259C34.2517 19.3672 33.5673 17.1406 32.5082 15.3535ZM28 26.2972C24.9147 26.2972 22.4979 23.9818 22.4979 21.0259C22.4979 17.8903 25.0695 12.7027 28 12.7027C30.9306 12.7027 33.5021 17.8903 33.5021 21.0259C33.5021 23.9818 31.0854 26.2972 28 26.2972Z" fill="black"/>
<path d="M15.5082 15.3535C14.2266 13.191 12.6256 12 11 12C9.37444 12 7.77348 13.191 6.4918 15.3535C5.43267 17.1407 4.74829 19.3672 4.74829 21.0259C4.74829 22.6269 5.38839 24.1258 6.55076 25.2466C7.72332 26.3773 9.30342 26.9999 11.0001 26.9999C12.6967 26.9999 14.2768 26.3772 15.4494 25.2466C16.6117 24.1258 17.2518 22.6269 17.2518 21.0259C17.2517 19.3672 16.5673 17.1406 15.5082 15.3535ZM11 26.2972C7.91466 26.2972 5.49789 23.9818 5.49789 21.0259C5.49789 17.8903 8.06945 12.7027 11 12.7027C13.9306 12.7027 16.5021 17.8903 16.5021 21.0259C16.5021 23.9818 14.0854 26.2972 11 26.2972Z" fill="black"/>
<path d="M49.5082 15.3535C48.2266 13.191 46.6256 12 45 12C43.3744 12 41.7735 13.191 40.4918 15.3535C39.4327 17.1407 38.7483 19.3672 38.7483 21.0259C38.7483 22.6269 39.3884 24.1258 40.5508 25.2466C41.7233 26.3773 43.3034 26.9999 45.0001 26.9999C46.6967 26.9999 48.2768 26.3772 49.4494 25.2466C50.6117 24.1258 51.2518 22.6269 51.2518 21.0259C51.2517 19.3672 50.5673 17.1406 49.5082 15.3535ZM45 26.2972C41.9147 26.2972 39.4979 23.9818 39.4979 21.0259C39.4979 17.8903 42.0695 12.7027 45 12.7027C47.9306 12.7027 50.5021 17.8903 50.5021 21.0259C50.5021 23.9818 48.0854 26.2972 45 26.2972Z" fill="black"/>
</svg>
