<svg width="56" height="56" viewBox="0 0 56 56" fill="none" xmlns="http://www.w3.org/2000/svg">
<rect width="56" height="56" fill="white"/>
<path d="M17.3672 43.6506C17.3145 44.1018 17.1475 44.4504 16.8662 44.6965C16.5869 44.9407 16.2148 45.0627 15.75 45.0627C15.2461 45.0627 14.8418 44.8821 14.5371 44.5208C14.2344 44.1594 14.083 43.676 14.083 43.0706V42.6604C14.083 42.2639 14.1533 41.9153 14.2939 41.6145C14.4365 41.3137 14.6377 41.0833 14.8975 40.9231C15.1572 40.761 15.458 40.6799 15.7998 40.6799C16.2529 40.6799 16.6162 40.8069 16.8896 41.0608C17.1631 41.3127 17.3223 41.6624 17.3672 42.1096H16.8018C16.7529 41.7698 16.6465 41.5237 16.4824 41.3713C16.3203 41.219 16.0928 41.1428 15.7998 41.1428C15.4404 41.1428 15.1582 41.2756 14.9531 41.5413C14.75 41.8069 14.6484 42.1848 14.6484 42.675V43.0881C14.6484 43.551 14.7451 43.9192 14.9385 44.1926C15.1318 44.4661 15.4023 44.6028 15.75 44.6028C16.0625 44.6028 16.3018 44.5325 16.4678 44.3918C16.6357 44.2493 16.7471 44.0022 16.8018 43.6506H17.3672Z" fill="black"/>
<path d="M21.1406 40.7385V43.6389C21.1387 44.0413 21.0117 44.3704 20.7598 44.6262C20.5098 44.8821 20.1699 45.0256 19.7402 45.0569L19.5908 45.0627C19.124 45.0627 18.752 44.9368 18.4746 44.6848C18.1973 44.4329 18.0566 44.0862 18.0527 43.6448V40.7385H18.6094V43.6272C18.6094 43.9358 18.6943 44.176 18.8643 44.3479C19.0342 44.5178 19.2764 44.6028 19.5908 44.6028C19.9092 44.6028 20.1523 44.5178 20.3203 44.3479C20.4902 44.178 20.5752 43.9387 20.5752 43.6301V40.7385H21.1406Z" fill="black"/>
<path d="M22.0283 45.0042V40.7385H23.4229C23.8857 40.7385 24.2334 40.8342 24.4658 41.0256C24.7002 41.217 24.8174 41.5002 24.8174 41.8752C24.8174 42.0745 24.7607 42.2512 24.6475 42.4055C24.5342 42.5579 24.3799 42.676 24.1846 42.76C24.415 42.8245 24.5967 42.9475 24.7295 43.1292C24.8643 43.3088 24.9316 43.5237 24.9316 43.7737C24.9316 44.1565 24.8076 44.4573 24.5596 44.676C24.3115 44.8948 23.9609 45.0042 23.5078 45.0042H22.0283ZM22.5908 43.009V44.5442H23.5195C23.7812 44.5442 23.9873 44.4768 24.1377 44.342C24.29 44.2053 24.3662 44.0178 24.3662 43.7795C24.3662 43.2659 24.0869 43.009 23.5283 43.009H22.5908ZM22.5908 42.5579H23.4404C23.6865 42.5579 23.8828 42.4963 24.0293 42.3733C24.1777 42.2502 24.252 42.0833 24.252 41.8723C24.252 41.6379 24.1836 41.468 24.0469 41.3625C23.9102 41.2551 23.7021 41.2014 23.4229 41.2014H22.5908V42.5579Z" fill="black"/>
<path d="M28.1777 43.0325H26.3291V44.5442H28.4766V45.0042H25.7666V40.7385H28.4473V41.2014H26.3291V42.5725H28.1777V43.0325Z" fill="black"/>
<path d="M30.4336 43.1028C29.9512 42.9641 29.5996 42.7942 29.3789 42.593C29.1602 42.3899 29.0508 42.1399 29.0508 41.843C29.0508 41.5071 29.1846 41.2297 29.4521 41.011C29.7217 40.7903 30.0713 40.6799 30.501 40.6799C30.7939 40.6799 31.0547 40.7366 31.2832 40.8499C31.5137 40.9631 31.6914 41.1194 31.8164 41.3186C31.9434 41.5178 32.0068 41.7356 32.0068 41.9719H31.4414C31.4414 41.7141 31.3594 41.512 31.1953 41.3655C31.0312 41.217 30.7998 41.1428 30.501 41.1428C30.2236 41.1428 30.0068 41.2043 29.8506 41.3274C29.6963 41.4485 29.6191 41.6174 29.6191 41.8342C29.6191 42.0081 29.6924 42.1555 29.8389 42.2766C29.9873 42.3958 30.2383 42.5051 30.5918 42.6047C30.9473 42.7043 31.2246 42.8147 31.4238 42.9358C31.625 43.0549 31.7734 43.1946 31.8691 43.3547C31.9668 43.5149 32.0156 43.7034 32.0156 43.9202C32.0156 44.2659 31.8809 44.5432 31.6113 44.7522C31.3418 44.9592 30.9814 45.0627 30.5303 45.0627C30.2373 45.0627 29.9639 45.0071 29.71 44.8958C29.4561 44.7825 29.2598 44.6282 29.1211 44.4329C28.9844 44.2375 28.916 44.0159 28.916 43.7678H29.4814C29.4814 44.0256 29.5762 44.2297 29.7656 44.3801C29.957 44.5286 30.2119 44.6028 30.5303 44.6028C30.8271 44.6028 31.0547 44.5422 31.2129 44.4211C31.3711 44.3 31.4502 44.135 31.4502 43.926C31.4502 43.717 31.377 43.5559 31.2305 43.4426C31.084 43.3274 30.8184 43.2141 30.4336 43.1028Z" fill="black"/>
<path d="M37.5088 43.009C37.5088 43.427 37.4385 43.7922 37.2979 44.1047C37.1572 44.4153 36.958 44.6526 36.7002 44.8167C36.4424 44.9807 36.1416 45.0627 35.7979 45.0627C35.4619 45.0627 35.1641 44.9807 34.9043 44.8167C34.6445 44.6506 34.4424 44.4153 34.2979 44.1106C34.1553 43.804 34.082 43.4495 34.0781 43.0471V42.7395C34.0781 42.3293 34.1494 41.967 34.292 41.6526C34.4346 41.3381 34.6357 41.0979 34.8955 40.9319C35.1572 40.7639 35.4561 40.6799 35.792 40.6799C36.1338 40.6799 36.4346 40.7629 36.6943 40.929C36.9561 41.093 37.1572 41.3323 37.2979 41.6467C37.4385 41.9592 37.5088 42.3235 37.5088 42.7395V43.009ZM36.9492 42.7336C36.9492 42.2278 36.8477 41.8401 36.6445 41.5706C36.4414 41.2991 36.1572 41.1633 35.792 41.1633C35.4365 41.1633 35.1562 41.2991 34.9512 41.5706C34.748 41.8401 34.6436 42.2151 34.6377 42.6956V43.009C34.6377 43.4993 34.7402 43.885 34.9453 44.1663C35.1523 44.4456 35.4365 44.5852 35.7979 44.5852C36.1611 44.5852 36.4424 44.4534 36.6416 44.1897C36.8408 43.9241 36.9434 43.5442 36.9492 43.05V42.7336Z" fill="black"/>
<path d="M41.6309 45.0042H41.0654L38.918 41.717V45.0042H38.3525V40.7385H38.918L41.0713 44.0403V40.7385H41.6309V45.0042Z" fill="black"/>
<path d="M9.50977 47.4485L9.82031 47.6594C9.63867 47.9075 9.54492 48.175 9.53906 48.4622V48.8606H9V48.5208C9 48.3215 9.04688 48.1243 9.14062 47.929C9.23633 47.7336 9.35938 47.5735 9.50977 47.4485ZM10.4326 47.4485L10.7432 47.6594C10.5615 47.9075 10.4678 48.175 10.4619 48.4622V48.8606H9.92285V48.5208C9.92285 48.3215 9.96973 48.1243 10.0635 47.929C10.1592 47.7336 10.2822 47.5735 10.4326 47.4485Z" fill="black"/>
<path d="M11.874 50.3342V52.0042H11.3115V47.7385H12.8848C13.3516 47.7385 13.7168 47.8577 13.9805 48.0959C14.2461 48.3342 14.3789 48.6497 14.3789 49.0422C14.3789 49.4563 14.249 49.7756 13.9893 50.0002C13.7314 50.2229 13.3613 50.3342 12.8789 50.3342H11.874ZM11.874 49.8743H12.8848C13.1855 49.8743 13.416 49.804 13.5762 49.6633C13.7363 49.5208 13.8164 49.3157 13.8164 49.0481C13.8164 48.7942 13.7363 48.5911 13.5762 48.4387C13.416 48.2864 13.1963 48.2073 12.917 48.2014H11.874V49.8743Z" fill="black"/>
<path d="M15.6621 51.5442H17.6836V52.0042H15.0967V47.7385H15.6621V51.5442Z" fill="black"/>
<path d="M20.7393 50.8909H18.9521L18.5508 52.0042H17.9707L19.5996 47.7385H20.0918L21.7236 52.0042H21.1465L20.7393 50.8909ZM19.1221 50.428H20.5723L19.8457 48.4329L19.1221 50.428Z" fill="black"/>
<path d="M23.3232 49.8801L24.4365 47.7385H25.0752L23.6045 50.4133V52.0042H23.042V50.4133L21.5713 47.7385H22.2158L23.3232 49.8801Z" fill="black"/>
<path d="M29.4697 50.8909H27.6826L27.2812 52.0042H26.7012L28.3301 47.7385H28.8223L30.4541 52.0042H29.877L29.4697 50.8909ZM27.8525 50.428H29.3027L28.5762 48.4329L27.8525 50.428Z" fill="black"/>
<path d="M32.5166 52.0042V47.7385H33.9111C34.374 47.7385 34.7217 47.8342 34.9541 48.0256C35.1885 48.217 35.3057 48.5002 35.3057 48.8752C35.3057 49.0745 35.249 49.2512 35.1357 49.4055C35.0225 49.5579 34.8682 49.676 34.6729 49.76C34.9033 49.8245 35.085 49.9475 35.2178 50.1292C35.3525 50.3088 35.4199 50.5237 35.4199 50.7737C35.4199 51.1565 35.2959 51.4573 35.0479 51.676C34.7998 51.8948 34.4492 52.0042 33.9961 52.0042H32.5166ZM33.0791 50.009V51.5442H34.0078C34.2695 51.5442 34.4756 51.4768 34.626 51.342C34.7783 51.2053 34.8545 51.0178 34.8545 50.7795C34.8545 50.2659 34.5752 50.009 34.0166 50.009H33.0791ZM33.0791 49.5579H33.9287C34.1748 49.5579 34.3711 49.4963 34.5176 49.3733C34.666 49.2502 34.7402 49.0833 34.7402 48.8723C34.7402 48.6379 34.6719 48.468 34.5352 48.3625C34.3984 48.2551 34.1904 48.2014 33.9111 48.2014H33.0791V49.5579Z" fill="black"/>
<path d="M36.8584 52.0042H36.2959V47.7385H36.8584V52.0042Z" fill="black"/>
<path d="M39.4541 50.2786H38.4521V52.0042H37.8867V47.7385H39.2988C39.7793 47.7385 40.1484 47.8479 40.4062 48.0667C40.666 48.2854 40.7959 48.6038 40.7959 49.0217C40.7959 49.2874 40.7236 49.5188 40.5791 49.7161C40.4365 49.9133 40.2373 50.0608 39.9814 50.1584L40.9834 51.969V52.0042H40.3799L39.4541 50.2786ZM38.4521 49.8186H39.3164C39.5957 49.8186 39.8174 49.7463 39.9814 49.6018C40.1475 49.4573 40.2305 49.2639 40.2305 49.0217C40.2305 48.7581 40.1514 48.5559 39.9932 48.4153C39.8369 48.2747 39.6104 48.2034 39.3135 48.2014H38.4521V49.8186Z" fill="black"/>
<path d="M41.5869 52.0042V47.7385H42.791C43.1621 47.7385 43.4902 47.8206 43.7754 47.9846C44.0605 48.1487 44.2803 48.3821 44.4346 48.6848C44.5908 48.9875 44.6699 49.3352 44.6719 49.7278V50.0002C44.6719 50.4026 44.5938 50.7551 44.4375 51.0579C44.2832 51.3606 44.0615 51.593 43.7725 51.7551C43.4854 51.9172 43.1504 52.0002 42.7676 52.0042H41.5869ZM42.1494 48.2014V51.5442H42.7412C43.1748 51.5442 43.5117 51.4094 43.752 51.1399C43.9941 50.8704 44.1152 50.4866 44.1152 49.9885V49.7395C44.1152 49.2551 44.001 48.8792 43.7725 48.6116C43.5459 48.342 43.2236 48.2053 42.8057 48.2014H42.1494Z" fill="black"/>
<path d="M45.5127 48.9397L45.2051 48.7288C45.3867 48.4749 45.4805 48.2073 45.4863 47.926V47.5042H46.0225V47.885C46.0205 48.0803 45.9717 48.2756 45.876 48.4709C45.7822 48.6643 45.6611 48.8206 45.5127 48.9397ZM46.4121 48.9397L46.1045 48.7288C46.2861 48.4749 46.3799 48.2073 46.3857 47.926V47.5042H46.9219V47.885C46.9199 48.0803 46.8711 48.2756 46.7754 48.4709C46.6816 48.6643 46.5605 48.8206 46.4121 48.9397Z" fill="black"/>
<g clip-path="url(#clip0_104_315)">
<path d="M42.4501 11.2297C42.4501 11.2214 42.447 11.2142 42.4464 11.2059C42.4444 11.1677 42.4397 11.1305 42.4299 11.0943C42.4253 11.0788 42.418 11.0649 42.4118 11.0499C42.401 11.022 42.3906 10.9951 42.3751 10.9698C42.3658 10.9543 42.354 10.9409 42.3436 10.9269C42.3271 10.9047 42.31 10.883 42.2904 10.8639C42.277 10.851 42.2615 10.8396 42.2465 10.8282C42.2325 10.8174 42.2207 10.8045 42.2057 10.7947C42.1969 10.7895 42.1871 10.7869 42.1783 10.7823C42.1711 10.7781 42.1654 10.7719 42.1576 10.7683L28.2076 4.05164C28.0609 3.98086 27.8899 3.98344 27.7452 4.05888L14.8285 10.7755C14.8228 10.7786 14.8192 10.7833 14.8135 10.7864C14.8079 10.7895 14.8011 10.791 14.7949 10.7947C14.7774 10.8055 14.7639 10.82 14.7479 10.8329C14.7329 10.8448 14.7169 10.8556 14.703 10.8691C14.6833 10.8887 14.6678 10.9104 14.6518 10.9326C14.6415 10.9471 14.6291 10.96 14.6203 10.9755C14.6043 11.0029 14.5934 11.0323 14.5831 11.0623C14.5785 11.0752 14.5717 11.0866 14.5681 11.1C14.5568 11.1424 14.55 11.1873 14.55 11.2333V27.7666C14.55 27.9625 14.6606 28.1412 14.8358 28.2291L28.2691 34.9457C28.2768 34.9493 28.2851 34.9478 28.2929 34.9514C28.3595 34.9803 28.4288 35 28.5 35C28.5713 35 28.6411 34.9803 28.7072 34.9509C28.715 34.9473 28.7238 34.9488 28.731 34.9452L42.1643 28.2285C42.3395 28.1412 42.4501 27.9625 42.4501 27.7666V11.2333V11.2312V11.2297ZM27.9922 5.09428L40.7606 11.2421L28.5 17.3723L16.2039 11.2245L27.9922 5.09428ZM15.5834 12.0693L27.9834 18.2693V33.6473L15.5834 27.4473V12.0693ZM41.4167 27.4473L29.0167 33.6473V18.2693L41.4167 12.0693V27.4473Z" fill="black"/>
</g>
<defs>
<clipPath id="clip0_104_315">
<rect width="31" height="31" fill="white" transform="translate(13 4)"/>
</clipPath>
</defs>
</svg>
