<svg width="56" height="56" viewBox="0 0 56 56" fill="none" xmlns="http://www.w3.org/2000/svg">
<rect width="56" height="56" fill="white"/>
<rect x="23.5" y="8.5" width="11" height="19" rx="1.5" stroke="#0670BB"/>
<rect x="20.5" y="8.5" width="11" height="19" rx="1.5" stroke="#0670BB"/>
<rect x="17.5" y="8.5" width="11" height="19" rx="1.5" stroke="#0670BB"/>
<rect x="26.5" y="8.5" width="11" height="19" rx="1.5" fill="black" stroke="black"/>
<g clip-path="url(#clip0_338_50)">
<path d="M29.9168 14.8166C31.2713 15.0857 31.1748 16.188 32.2638 16.6514C32.7461 16.856 33.8571 16.9798 33.9781 16.9225C34.7158 16.5757 35.8008 15.7081 35.8008 15.7081C35.8008 15.7081 35.7039 16.4146 35.3258 17.0246C36.2098 16.8156 36.6667 16.3634 36.6667 16.3634C36.6667 16.3634 36.0812 21.4652 32.0844 21.2189C29.0428 21.0318 29.2243 18.34 28.726 17.5565C28.2286 16.7743 27.3334 16.9365 27.3334 16.9365C27.3334 16.9365 27.8809 14.4128 29.9168 14.8166ZM29.205 16.3514C29.3909 16.3514 29.5411 16.2008 29.5411 16.0153C29.5411 15.8299 29.3909 15.6793 29.205 15.6793C29.02 15.6793 28.8694 15.8303 28.8694 16.0153C28.8694 16.2004 29.0196 16.3514 29.205 16.3514Z" fill="white"/>
</g>
<path d="M12.4551 40.3242V36.0586H13.8496C14.3125 36.0586 14.6602 36.1543 14.8926 36.3457C15.127 36.5371 15.2441 36.8203 15.2441 37.1953C15.2441 37.3945 15.1875 37.5713 15.0742 37.7256C14.9609 37.8779 14.8066 37.9961 14.6113 38.0801C14.8418 38.1445 15.0234 38.2676 15.1562 38.4492C15.291 38.6289 15.3584 38.8438 15.3584 39.0938C15.3584 39.4766 15.2344 39.7773 14.9863 39.9961C14.7383 40.2148 14.3877 40.3242 13.9346 40.3242H12.4551ZM13.0176 38.3291V39.8643H13.9463C14.208 39.8643 14.4141 39.7969 14.5645 39.6621C14.7168 39.5254 14.793 39.3379 14.793 39.0996C14.793 38.5859 14.5137 38.3291 13.9551 38.3291H13.0176ZM13.0176 37.8779H13.8672C14.1133 37.8779 14.3096 37.8164 14.4561 37.6934C14.6045 37.5703 14.6787 37.4033 14.6787 37.1924C14.6787 36.958 14.6104 36.7881 14.4736 36.6826C14.3369 36.5752 14.1289 36.5215 13.8496 36.5215H13.0176V37.8779Z" fill="black"/>
<path d="M16.7969 40.3242H16.2344V36.0586H16.7969V40.3242Z" fill="black"/>
<path d="M19.3926 38.5986H18.3906V40.3242H17.8252V36.0586H19.2373C19.7178 36.0586 20.0869 36.168 20.3447 36.3867C20.6045 36.6055 20.7344 36.9238 20.7344 37.3418C20.7344 37.6074 20.6621 37.8389 20.5176 38.0361C20.375 38.2334 20.1758 38.3809 19.9199 38.4785L20.9219 40.2891V40.3242H20.3184L19.3926 38.5986ZM18.3906 38.1387H19.2549C19.5342 38.1387 19.7559 38.0664 19.9199 37.9219C20.0859 37.7773 20.1689 37.584 20.1689 37.3418C20.1689 37.0781 20.0898 36.876 19.9316 36.7354C19.7754 36.5947 19.5488 36.5234 19.252 36.5215H18.3906V38.1387Z" fill="black"/>
<path d="M21.5254 40.3242V36.0586H22.7295C23.1006 36.0586 23.4287 36.1406 23.7139 36.3047C23.999 36.4688 24.2188 36.7021 24.373 37.0049C24.5293 37.3076 24.6084 37.6553 24.6104 38.0479V38.3203C24.6104 38.7227 24.5322 39.0752 24.376 39.3779C24.2217 39.6807 24 39.9131 23.7109 40.0752C23.4238 40.2373 23.0889 40.3203 22.7061 40.3242H21.5254ZM22.0879 36.5215V39.8643H22.6797C23.1133 39.8643 23.4502 39.7295 23.6904 39.46C23.9326 39.1904 24.0537 38.8066 24.0537 38.3086V38.0596C24.0537 37.5752 23.9395 37.1992 23.7109 36.9316C23.4844 36.6621 23.1621 36.5254 22.7441 36.5215H22.0879Z" fill="black"/>
<path d="M26.7197 38.4229C26.2373 38.2842 25.8857 38.1143 25.665 37.9131C25.4463 37.71 25.3369 37.46 25.3369 37.1631C25.3369 36.8271 25.4707 36.5498 25.7383 36.3311C26.0078 36.1104 26.3574 36 26.7871 36C27.0801 36 27.3408 36.0566 27.5693 36.1699C27.7998 36.2832 27.9775 36.4395 28.1025 36.6387C28.2295 36.8379 28.293 37.0557 28.293 37.292H27.7275C27.7275 37.0342 27.6455 36.832 27.4814 36.6855C27.3174 36.5371 27.0859 36.4629 26.7871 36.4629C26.5098 36.4629 26.293 36.5244 26.1367 36.6475C25.9824 36.7686 25.9053 36.9375 25.9053 37.1543C25.9053 37.3281 25.9785 37.4756 26.125 37.5967C26.2734 37.7158 26.5244 37.8252 26.8779 37.9248C27.2334 38.0244 27.5107 38.1348 27.71 38.2559C27.9111 38.375 28.0596 38.5146 28.1553 38.6748C28.2529 38.835 28.3018 39.0234 28.3018 39.2402C28.3018 39.5859 28.167 39.8633 27.8975 40.0723C27.6279 40.2793 27.2676 40.3828 26.8164 40.3828C26.5234 40.3828 26.25 40.3271 25.9961 40.2158C25.7422 40.1025 25.5459 39.9482 25.4072 39.7529C25.2705 39.5576 25.2021 39.3359 25.2021 39.0879H25.7676C25.7676 39.3457 25.8623 39.5498 26.0518 39.7002C26.2432 39.8486 26.498 39.9229 26.8164 39.9229C27.1133 39.9229 27.3408 39.8623 27.499 39.7412C27.6572 39.6201 27.7363 39.4551 27.7363 39.2461C27.7363 39.0371 27.6631 38.876 27.5166 38.7627C27.3701 38.6475 27.1045 38.5342 26.7197 38.4229Z" fill="black"/>
<path d="M31.4336 38.9795L31.5156 39.542L31.6357 39.0352L32.4795 36.0586H32.9541L33.7773 39.0352L33.8945 39.5508L33.9854 38.9766L34.6475 36.0586H35.2129L34.1787 40.3242H33.666L32.7871 37.2158L32.7197 36.8906L32.6523 37.2158L31.7412 40.3242H31.2285L30.1973 36.0586H30.7598L31.4336 38.9795Z" fill="black"/>
<path d="M36.4434 40.3242H35.8809V36.0586H36.4434V40.3242Z" fill="black"/>
<path d="M40.334 36.5215H38.9629V40.3242H38.4033V36.5215H37.0352V36.0586H40.334V36.5215Z" fill="black"/>
<path d="M44.2451 40.3242H43.6797V38.3525H41.5293V40.3242H40.9668V36.0586H41.5293V37.8926H43.6797V36.0586H44.2451V40.3242Z" fill="black"/>
<path d="M10.2988 43.5215H8.92773V47.3242H8.36816V43.5215H7V43.0586H10.2988V43.5215Z" fill="black"/>
<path d="M13.9346 43.0586V45.959C13.9326 46.3613 13.8057 46.6904 13.5537 46.9463C13.3037 47.2021 12.9639 47.3457 12.5342 47.377L12.3848 47.3828C11.918 47.3828 11.5459 47.2568 11.2686 47.0049C10.9912 46.7529 10.8506 46.4062 10.8467 45.9648V43.0586H11.4033V45.9473C11.4033 46.2559 11.4883 46.4961 11.6582 46.668C11.8281 46.8379 12.0703 46.9229 12.3848 46.9229C12.7031 46.9229 12.9463 46.8379 13.1143 46.668C13.2842 46.498 13.3691 46.2588 13.3691 45.9502V43.0586H13.9346Z" fill="black"/>
<path d="M17.96 45.9707C17.9072 46.4219 17.7402 46.7705 17.459 47.0166C17.1797 47.2607 16.8076 47.3828 16.3428 47.3828C15.8389 47.3828 15.4346 47.2021 15.1299 46.8408C14.8271 46.4795 14.6758 45.9961 14.6758 45.3906V44.9805C14.6758 44.584 14.7461 44.2354 14.8867 43.9346C15.0293 43.6338 15.2305 43.4033 15.4902 43.2432C15.75 43.0811 16.0508 43 16.3926 43C16.8457 43 17.209 43.127 17.4824 43.3809C17.7559 43.6328 17.915 43.9824 17.96 44.4297H17.3945C17.3457 44.0898 17.2393 43.8438 17.0752 43.6914C16.9131 43.5391 16.6855 43.4629 16.3926 43.4629C16.0332 43.4629 15.751 43.5957 15.5459 43.8613C15.3428 44.127 15.2412 44.5049 15.2412 44.9951V45.4082C15.2412 45.8711 15.3379 46.2393 15.5312 46.5127C15.7246 46.7861 15.9951 46.9229 16.3428 46.9229C16.6553 46.9229 16.8945 46.8525 17.0605 46.7119C17.2285 46.5693 17.3398 46.3223 17.3945 45.9707H17.96Z" fill="black"/>
<path d="M19.8145 45.3408L19.293 45.8828V47.3242H18.7305V43.0586H19.293V45.168L21.1885 43.0586H21.8682L20.1895 44.9424L22 47.3242H21.3262L19.8145 45.3408Z" fill="black"/>
<path d="M24.9033 45.3525H23.0547V46.8643H25.2021V47.3242H22.4922V43.0586H25.1729V43.5215H23.0547V44.8926H24.9033V45.3525Z" fill="black"/>
<path d="M25.9023 47.3242V43.0586H27.1064C27.4775 43.0586 27.8057 43.1406 28.0908 43.3047C28.376 43.4688 28.5957 43.7021 28.75 44.0049C28.9062 44.3076 28.9854 44.6553 28.9873 45.0479V45.3203C28.9873 45.7227 28.9092 46.0752 28.7529 46.3779C28.5986 46.6807 28.377 46.9131 28.0879 47.0752C27.8008 47.2373 27.4658 47.3203 27.083 47.3242H25.9023ZM26.4648 43.5215V46.8643H27.0566C27.4902 46.8643 27.8271 46.7295 28.0674 46.46C28.3096 46.1904 28.4307 45.8066 28.4307 45.3086V45.0596C28.4307 44.5752 28.3164 44.1992 28.0879 43.9316C27.8613 43.6621 27.5391 43.5254 27.1211 43.5215H26.4648Z" fill="black"/>
<path d="M34.4658 45.9707C34.4131 46.4219 34.2461 46.7705 33.9648 47.0166C33.6855 47.2607 33.3135 47.3828 32.8486 47.3828C32.3447 47.3828 31.9404 47.2021 31.6357 46.8408C31.333 46.4795 31.1816 45.9961 31.1816 45.3906V44.9805C31.1816 44.584 31.252 44.2354 31.3926 43.9346C31.5352 43.6338 31.7363 43.4033 31.9961 43.2432C32.2559 43.0811 32.5566 43 32.8984 43C33.3516 43 33.7148 43.127 33.9883 43.3809C34.2617 43.6328 34.4209 43.9824 34.4658 44.4297H33.9004C33.8516 44.0898 33.7451 43.8438 33.5811 43.6914C33.4189 43.5391 33.1914 43.4629 32.8984 43.4629C32.5391 43.4629 32.2568 43.5957 32.0518 43.8613C31.8486 44.127 31.7471 44.5049 31.7471 44.9951V45.4082C31.7471 45.8711 31.8438 46.2393 32.0371 46.5127C32.2305 46.7861 32.501 46.9229 32.8486 46.9229C33.1611 46.9229 33.4004 46.8525 33.5664 46.7119C33.7344 46.5693 33.8457 46.3223 33.9004 45.9707H34.4658Z" fill="black"/>
<path d="M37.5918 46.2109H35.8047L35.4033 47.3242H34.8232L36.4521 43.0586H36.9443L38.5762 47.3242H37.999L37.5918 46.2109ZM35.9746 45.748H37.4248L36.6982 43.7529L35.9746 45.748Z" fill="black"/>
<path d="M40.7148 45.5986H39.7129V47.3242H39.1475V43.0586H40.5596C41.04 43.0586 41.4092 43.168 41.667 43.3867C41.9268 43.6055 42.0566 43.9238 42.0566 44.3418C42.0566 44.6074 41.9844 44.8389 41.8398 45.0361C41.6973 45.2334 41.498 45.3809 41.2422 45.4785L42.2441 47.2891V47.3242H41.6406L40.7148 45.5986ZM39.7129 45.1387H40.5771C40.8564 45.1387 41.0781 45.0664 41.2422 44.9219C41.4082 44.7773 41.4912 44.584 41.4912 44.3418C41.4912 44.0781 41.4121 43.876 41.2539 43.7354C41.0977 43.5947 40.8711 43.5234 40.5742 43.5215H39.7129V45.1387Z" fill="black"/>
<path d="M42.8477 47.3242V43.0586H44.0518C44.4229 43.0586 44.751 43.1406 45.0361 43.3047C45.3213 43.4688 45.541 43.7021 45.6953 44.0049C45.8516 44.3076 45.9307 44.6553 45.9326 45.0479V45.3203C45.9326 45.7227 45.8545 46.0752 45.6982 46.3779C45.5439 46.6807 45.3223 46.9131 45.0332 47.0752C44.7461 47.2373 44.4111 47.3203 44.0283 47.3242H42.8477ZM43.4102 43.5215V46.8643H44.002C44.4355 46.8643 44.7725 46.7295 45.0127 46.46C45.2549 46.1904 45.376 45.8066 45.376 45.3086V45.0596C45.376 44.5752 45.2617 44.1992 45.0332 43.9316C44.8066 43.6621 44.4844 43.5254 44.0664 43.5215H43.4102Z" fill="black"/>
<path d="M48.042 45.4229C47.5596 45.2842 47.208 45.1143 46.9873 44.9131C46.7686 44.71 46.6592 44.46 46.6592 44.1631C46.6592 43.8271 46.793 43.5498 47.0605 43.3311C47.3301 43.1104 47.6797 43 48.1094 43C48.4023 43 48.6631 43.0566 48.8916 43.1699C49.1221 43.2832 49.2998 43.4395 49.4248 43.6387C49.5518 43.8379 49.6152 44.0557 49.6152 44.292H49.0498C49.0498 44.0342 48.9678 43.832 48.8037 43.6855C48.6396 43.5371 48.4082 43.4629 48.1094 43.4629C47.832 43.4629 47.6152 43.5244 47.459 43.6475C47.3047 43.7686 47.2275 43.9375 47.2275 44.1543C47.2275 44.3281 47.3008 44.4756 47.4473 44.5967C47.5957 44.7158 47.8467 44.8252 48.2002 44.9248C48.5557 45.0244 48.833 45.1348 49.0322 45.2559C49.2334 45.375 49.3818 45.5146 49.4775 45.6748C49.5752 45.835 49.624 46.0234 49.624 46.2402C49.624 46.5859 49.4893 46.8633 49.2197 47.0723C48.9502 47.2793 48.5898 47.3828 48.1387 47.3828C47.8457 47.3828 47.5723 47.3271 47.3184 47.2158C47.0645 47.1025 46.8682 46.9482 46.7295 46.7529C46.5928 46.5576 46.5244 46.3359 46.5244 46.0879H47.0898C47.0898 46.3457 47.1846 46.5498 47.374 46.7002C47.5654 46.8486 47.8203 46.9229 48.1387 46.9229C48.4355 46.9229 48.6631 46.8623 48.8213 46.7412C48.9795 46.6201 49.0586 46.4551 49.0586 46.2461C49.0586 46.0371 48.9854 45.876 48.8389 45.7627C48.6924 45.6475 48.4268 45.5342 48.042 45.4229Z" fill="black"/>
<defs>
<clipPath id="clip0_338_50">
<rect width="9.33333" height="9.33333" rx="2" transform="matrix(-1 0 0 1 36.6667 13.3334)" fill="white"/>
</clipPath>
</defs>
</svg>
